{
  "addresses": [
    {
      "id": "5858 Dusty Gate Centre",
      "street": "Chistochina",
      "city": "IN",
      "region": "46214-8341",
      "country": "US",
      "code": "(317) 162-6388"
    },
    {
      "id": "5673 Emerald Glade",
      "street": "Calexico",
      "city": "DE",
      "region": "19951-7071",
      "country": "US",
      "code": "(302) 268-4086"
    },
    {
      "id": "2710 Merry Corner",
      "street": "Khwunrghunme",
      "city": "CA",
      "region": "95518-6632",
      "country": "US",
      "code": "(925) 907-6438"
    },
    {
      "id": "9985 Rocky Fawn Concession",
      "street": "Two Rock",
      "city": "NM",
      "region": "87829-2579",
      "country": "US",
      "code": "(575) 048-2404"
    },
    {
      "id": "7770 Indian Cider Crossing",
      "street": "Glasgow",
      "city": "UT",
      "region": "84782-6510",
      "country": "US",
      "code": "(435) 716-7677"
    },
    {
      "id": "5652 Stony Brook End",
      "street": "Noon",
      "city": "AL",
      "region": "35544-3954",
      "country": "US",
      "code": "(251) 697-5310"
    },
    {
      "id": "2130 Umber Hills Court",
      "street": "Recreation",
      "city": "TX",
      "region": "77987-7019",
      "country": "US",
      "code": "(817) 177-4463"
    },
    {
      "id": "1141 Harvest Lagoon Carrefour",
      "street": "Steilacoom",
      "city": "CA",
      "region": "95389-6491",
      "country": "US",
      "code": "(951) 289-8295"
    },
    {
      "id": "1337 Grand Walk",
      "street": "Waiilatpo",
      "city": "IN",
      "region": "47276-9074",
      "country": "US",
      "code": "(219) 849-2949"
    },
    {
      "id": "1256 Quaking Rabbit Point",
      "street": "Tuba City",
      "city": "RI",
      "region": "02852-7853",
      "country": "US",
      "code": "(401) 674-7734"
    },
    {
      "id": "8953 Velvet Knoll",
      "street": "Two Guns",
      "city": "MA",
      "region": "01767-8540",
      "country": "US",
      "code": "(617) 248-8128"
    },
    {
      "id": "3098 Easy Row",
      "street": "Hasty",
      "city": "AK",
      "region": "99904-2945",
      "country": "US",
      "code": "(907) 813-2715"
    },
    {
      "id": "6438 Golden Glen",
      "street": "Spirit Lake",
      "city": "NY",
      "region": "10775-8276",
      "country": "US",
      "code": "(917) 874-1262"
    },
    {
      "id": "9514 Quiet Timber Cape",
      "street": "Fishtail",
      "city": "KS",
      "region": "66065-5686",
      "country": "US",
      "code": "(785) 965-5279"
    },
    {
      "id": "1174 Jagged Zephyr Ledge",
      "street": "Defiance",
      "city": "MO",
      "region": "64547-3082",
      "country": "US",
      "code": "(417) 550-1522"
    },
    {
      "id": "4445 Lazy Deer Range",
      "street": "Chugwater",
      "city": "CT",
      "region": "06128-3619",
      "country": "US",
      "code": "(475) 623-3109"
    },
    {
      "id": "5896 Silver Landing",
      "street": "Debardeleben",
      "city": "DC",
      "region": "20035-3226",
      "country": "US",
      "code": "(202) 668-9781"
    },
    {
      "id": "6339 Broad Robin Downs",
      "street": "Eutaw",
      "city": "IL",
      "region": "60926-8346",
      "country": "US",
      "code": "(872) 236-7631"
    },
    {
      "id": "232 Rustic Private",
      "street": "Intercourse",
      "city": "WV",
      "region": "26497-9351",
      "country": "US",
      "code": "(681) 754-8134"
    },
    {
      "id": "5277 Dewy Shadow Campus",
      "street": "Zook",
      "city": "ID",
      "region": "83817-9309",
      "country": "US",
      "code": "(208) 646-9173"
    },
    {
      "id": "6021 Iron Ridge",
      "street": "Decide",
      "city": "NE",
      "region": "68737-9302",
      "country": "US",
      "code": "(308) 159-9324"
    },
    {
      "id": "5611 Green Street",
      "street": "Lucky Stop",
      "city": "TX",
      "region": "79854-2094",
      "country": "US",
      "code": "(930) 925-2880"
    },
    {
      "id": "6363 Foggy Cove",
      "street": "Sixth Vein",
      "city": "OR",
      "region": "97150-0322",
      "country": "US",
      "code": "(971) 496-0618"
    },
    {
      "id": "3792 Heather Embers Vista",
      "street": "Delaware",
      "city": "NE",
      "region": "69803-3186",
      "country": "US",
      "code": "(402) 898-6404"
    },
    {
      "id": "1141 Colonial Island Via",
      "street": "Frost Town",
      "city": "DC",
      "region": "20097-0589",
      "country": "US",
      "code": "(202) 431-7639"
    },
    {
      "id": "1388 Cinder Mountain Way",
      "street": "Free Trade",
      "city": "NH",
      "region": "03762-9019",
      "country": "US",
      "code": "(603) 415-9787"
    },
    {
      "id": "2230 Burning Rise Beach",
      "street": "Nitta Yuma",
      "city": "FL",
      "region": "33841-2764",
      "country": "US",
      "code": "(863) 921-3577"
    },
    {
      "id": "8460 Tawny Quail Bay",
      "street": "Cannon Ball",
      "city": "MT",
      "region": "59247-8045",
      "country": "US",
      "code": "(406) 212-7389"
    },
    {
      "id": "7836 Old Promenade",
      "street": "Porcupine",
      "city": "WY",
      "region": "82392-0429",
      "country": "US",
      "code": "(307) 644-8843"
    },
    {
      "id": "3517 Thunder Treasure Pines",
      "street": "Keyapaha",
      "city": "OH",
      "region": "43477-9145",
      "country": "US",
      "code": "(440) 766-7737"
    },
    {
      "id": "4197 Crystal Estates",
      "street": "Gruetli-Laager",
      "city": "RI",
      "region": "02961-0699",
      "country": "US",
      "code": "(401) 117-2336"
    },
    {
      "id": "6041 Little Lake Lane",
      "street": "King Arthur Court",
      "city": "GA",
      "region": "39859-5753",
      "country": "US",
      "code": "(678) 558-7359"
    },
    {
      "id": "8080 Red Moor",
      "street": "Loafers Corner",
      "city": "IN",
      "region": "47146-6843",
      "country": "US",
      "code": "(260) 821-4878"
    },
    {
      "id": "8698 Sleepy Key",
      "street": "Negro Gull",
      "city": "WY",
      "region": "82410-9859",
      "country": "US",
      "code": "(307) 844-4113"
    },
    {
      "id": "8705 Hidden Vale",
      "street": "Blanket",
      "city": "KY",
      "region": "40304-1926",
      "country": "US",
      "code": "(270) 641-9120"
    },
    {
      "id": "6313 Middle Pathway",
      "street": "Hogeye",
      "city": "MA",
      "region": "02161-5586",
      "country": "US",
      "code": "(857) 983-8547"
    },
    {
      "id": "4903 Gentle Grove",
      "street": "Poorboy Landing",
      "city": "VA",
      "region": "22219-4262",
      "country": "US",
      "code": "(757) 132-7538"
    },
    {
      "id": "2877 Wishing Log Bend",
      "street": "County Line",
      "city": "IL",
      "region": "62669-6615",
      "country": "US",
      "code": "(847) 806-2991"
    },
    {
      "id": "8675 Clear Elk Wharf",
      "street": "Cricket Hill",
      "city": "TX",
      "region": "75867-8748",
      "country": "US",
      "code": "(979) 084-2601"
    },
    {
      "id": "8966 Fallen Branch Field",
      "street": "Keen-Wik",
      "city": "MS",
      "region": "39493-8746",
      "country": "US",
      "code": "(769) 874-3223"
    },
    {
      "id": "1717 Shady Circle",
      "street": "New Castle",
      "city": "AZ",
      "region": "85100-3656",
      "country": "US",
      "code": "(480) 553-4117"
    },
    {
      "id": "9910 Cozy Plaza",
      "street": "Dismal Key",
      "city": "WV",
      "region": "25236-9927",
      "country": "US",
      "code": "(681) 573-2968"
    },
    {
      "id": "4840 Hazy Link",
      "street": "Toto",
      "city": "NH",
      "region": "03467-2462",
      "country": "US",
      "code": "(603) 903-9364"
    },
    {
      "id": "2614 Honey River Trail",
      "street": "Bald Friar",
      "city": "LA",
      "region": "71334-7680",
      "country": "US",
      "code": "(985) 554-2787"
    },
    {
      "id": "6346 Cotton Swale",
      "street": "Jumptown",
      "city": "OH",
      "region": "44550-2222",
      "country": "US",
      "code": "(419) 958-8384"
    },
    {
      "id": "1687 Amber Grounds",
      "street": "Buzzards Bay",
      "city": "FL",
      "region": "33928-0464",
      "country": "US",
      "code": "(352) 811-3553"
    },
    {
      "id": "4092 Noble Rise",
      "street": "Nasketucket",
      "city": "VA",
      "region": "22193-1167",
      "country": "US",
      "code": "(276) 335-1224"
    },
    {
      "id": "636 Blue Canyon",
      "street": "Texas Corners",
      "city": "SC",
      "region": "29674-3374",
      "country": "US",
      "code": "(864) 917-7949"
    },
    {
      "id": "109 Silent Highlands",
      "street": "Soo Nipi",
      "city": "ME",
      "region": "04070-2817",
      "country": "US",
      "code": "(207) 658-7246"
    },
    {
      "id": "484 High Anchor Orchard",
      "street": "Muitzeskill",
      "city": "WV",
      "region": "26164-0572",
      "country": "US",
      "code": "(304) 780-3601');"
    }
  ]
}
